<?xml version="1.0" encoding="UTF-8"?>
<svg width="160px" height="28px" viewBox="0 0 160 28" version="1.1" xmlns="http://www.w3.org/2000/svg" xmlns:xlink="http://www.w3.org/1999/xlink">
    <title>A2CC8BDB-D2BC-4153-82E4-1F4C9405140C</title>
    <defs>
        <polygon id="path-1" points="0.122940187 0.159707709 26.1817031 0.159707709 26.1817031 26.7928506 0.122940187 26.7928506"></polygon>
        <polygon id="path-3" points="0.0435998704 0.210617249 48.2329774 0.210617249 48.2329774 24.7860285 0.0435998704 24.7860285"></polygon>
    </defs>
    <g id="Page-1" stroke="none" stroke-width="1" fill="none" fill-rule="evenodd">
        <g id="Moova---Desktop---Home" transform="translate(-120.000000, -33.000000)">
            <g id="Logo" transform="translate(120.000000, 33.000000)">
                <path d="M27.5885364,0.720976251 C25.6594169,0.720976251 23.8743383,1.24405992 22.2513058,2.28999342 C20.6645174,3.31792181 19.4743091,4.66970844 18.6986862,6.36522908 C17.9057596,4.66970844 16.7155513,3.31792181 15.1470018,2.28999342 C13.2129719,1.04366533 11.0483829,0.53998977 8.65393643,0.778966752 C6.85155426,0.95878407 5.12493387,1.66823237 3.71819657,2.80933577 C1.28025722,4.78592327 0.041177932,7.29915674 2.33832664e-05,10.2959562 L2.33832664e-05,25.9561973 C2.33832664e-05,26.4594052 0.407827548,26.8672094 0.91103544,26.8672094 C1.41377567,26.8672094 1.82157983,26.4594052 1.82157983,25.9561973 L1.82157983,10.2959562 C1.83958495,8.15030764 2.63251151,6.31074607 4.20152868,4.79621191 C5.75230691,3.26367263 7.60963975,2.5060548 9.79176617,2.5060548 C11.9731911,2.5060548 13.8482952,3.26367263 15.3993073,4.79621191 C16.9503193,6.31074607 17.7432459,8.15030764 17.77949,10.2959562 L17.77949,25.956665 C17.77949,26.4594052 18.1872941,26.8672094 18.6900343,26.8672094 C19.1932422,26.8672094 19.6005787,26.4594052 19.6005787,25.956665 L19.6005787,10.2959562 C19.636589,8.15030764 20.430217,6.31074607 21.9809953,4.79621191 C23.5497786,3.26367263 25.4068776,2.5060548 27.5885364,2.5060548 C29.7706628,2.5060548 31.6282294,3.26367263 33.1972466,4.79621191 C34.7473233,6.31074607 35.5409514,8.15030764 35.5769616,10.2959562 L35.5769616,25.9655506 C35.5769616,26.4633803 35.9805568,26.8672094 36.4783866,26.8672094 C36.9759825,26.8672094 37.3798115,26.4633803 37.3798115,25.9655506 L37.3798115,10.3504392 C37.3615725,7.68123931 36.4061323,5.40885349 34.4947841,3.51574425 C32.5836697,1.65864523 30.2755075,0.720976251 27.5885364,0.720976251" id="Fill-1" fill="#1D1D1B"></path>
                <g id="Group-5" transform="translate(101.717209, 0.074359)">
                    <mask id="mask-2" fill="white">
                        <use xlink:href="#path-1"></use>
                    </mask>
                    <g id="Clip-4"></g>
                    <path d="M13.1250508,22.6458283 L1.90061527,0.671637559 C1.73997223,0.357600292 1.41681549,0.159310194 1.06372817,0.159310194 C0.361762514,0.159310194 -0.0921066862,0.901495068 0.226841067,1.52652978 L13.1250508,26.7928506 L26.0805495,1.48093241 C26.390144,0.876942638 25.9517077,0.159310194 25.2728915,0.159310194 C24.9331326,0.159310194 24.6219014,0.349182316 24.4661688,0.651060285 L13.1250508,22.6458283 Z" id="Fill-3" fill="#1D1D1B" mask="url(#mask-2)"></path>
                </g>
                <path d="M154.176514,21.6556171 C151.94084,23.8735199 149.253869,24.9919415 146.098297,24.9919415 C142.942726,24.9919415 140.255988,23.8735199 138.02008,21.6556171 C135.802411,19.419943 134.684224,16.7329719 134.684224,13.5774001 C134.684224,10.4218283 135.802411,7.73555864 138.02008,5.49918305 C140.255988,3.28128023 142.942726,2.16309244 146.098297,2.16309244 C149.253869,2.16309244 151.94084,3.28128023 154.176514,5.49918305 C156.394417,7.73555864 157.512605,10.4218283 157.512605,13.5774001 C157.512605,16.7329719 156.394417,19.419943 154.176514,21.6556171 M155.511231,4.18293898 C152.91452,1.58646109 149.776719,0.288455974 146.116303,0.288455974 C142.455886,0.288455974 139.318085,1.58646109 136.721374,4.18293898 C134.12513,6.77918305 132.826657,9.91674973 132.809119,13.5774001 C132.809119,17.2380504 134.107358,20.3753833 136.703602,22.972095 C139.300548,25.5692744 142.437647,26.8670457 146.098297,26.8670457 C149.758948,26.8670457 152.896281,25.5692744 155.492525,22.972095 C156.286387,22.1787008 156.953511,21.3312912 157.512605,20.4298663 L157.512605,25.6225882 C157.512605,26.1405276 157.932802,26.560491 158.450508,26.560491 C158.968447,26.560491 159.388132,26.1405276 159.388132,25.6225882 L159.388132,13.5774001 C159.406182,9.91674973 158.107475,6.77918305 155.511231,4.18293898" id="Fill-6" fill="#1D1D1B"></path>
                <g id="Group-10" transform="translate(48.169529, 2.646518)">
                    <mask id="mask-4" fill="white">
                        <use xlink:href="#path-3"></use>
                    </mask>
                    <g id="Clip-9"></g>
                    <path d="M12.3334805,0.286842528 C8.40181805,0.317942273 4.50359372,2.17948411 2.15942126,5.6257099 C0.943959079,7.41359445 0.212530508,9.51317793 0.0708279138,11.6712196 C-0.399409573,18.8197179 5.28295798,24.7861922 12.3323113,24.7861922 C15.3333197,24.7861922 18.0862316,23.7044823 20.2211239,21.9107519 C21.3626949,20.9518042 22.7509594,20.4722134 24.1380548,20.4722134 C25.5258517,20.4722134 26.9136485,20.9518042 28.0552196,21.9107519 C30.1908133,23.7044823 32.9427899,24.7861922 35.944266,24.7861922 C42.9936193,24.7861922 48.6759868,18.8192503 48.2057494,11.6709858 C47.7839152,5.25578663 41.6605393,-0.170767994 35.1772948,0.23165802 C32.5202543,0.396510047 29.9595528,1.44337888 27.9422784,3.17958641 C26.8582302,4.11257874 25.4984932,4.5790749 24.1380548,4.5790749 C22.7785517,4.5790749 21.4183471,4.11257874 20.3345327,3.17958641 C18.0319825,1.19808842 15.1743135,0.264628425 12.3334805,0.286842528 M35.9437983,2.00130362 C36.1385809,2.00130362 36.3366372,2.00668177 36.5318875,2.0176719 C41.7327936,2.30177859 46.0748323,6.59377713 46.416228,11.7883697 C46.6093738,14.7241388 45.6104406,17.5210113 43.6034549,19.6645554 C41.5936631,21.8106715 38.8734878,22.9929295 35.944266,22.9929295 C33.4855155,22.9929295 31.0936412,22.1207336 29.2089499,20.5376865 C27.782103,19.3390603 25.9811239,18.6787168 24.1380548,18.6787168 C22.2952196,18.6787168 20.4944742,19.3390603 19.0676273,20.5376865 C17.1827022,22.1207336 14.7910617,22.9929295 12.3323113,22.9929295 C9.40308951,22.9929295 6.68291414,21.8106715 4.6724209,19.6645554 C2.66613665,17.521479 1.66696967,14.7243727 1.85988162,11.7886036 C2.309308,4.94689368 9.8153365,0.209677749 16.1910179,2.73951334 C17.2731955,3.16883011 18.2817157,3.77936719 19.1644341,4.53908951 C20.5384348,5.72134746 22.3045729,6.37257143 24.1380548,6.37257143 C25.9720044,6.37257143 27.7386102,5.72134746 29.1123771,4.53908951 C31.0132028,2.9024947 33.4399182,2.00130362 35.9437983,2.00130362" id="Fill-8" fill="#1D1D1B" mask="url(#mask-4)"></path>
                </g>
            </g>
        </g>
    </g>
</svg>