<?xml version="1.0" encoding="UTF-8"?>
<svg width="20px" height="20px" viewBox="0 0 20 20" version="1.1" xmlns="http://www.w3.org/2000/svg" xmlns:xlink="http://www.w3.org/1999/xlink">
    <title>051240F7-101B-48DF-BFE5-1BEA50F6C5F7</title>
    <g id="Page-1" stroke="none" stroke-width="1" fill="none" fill-rule="evenodd">
        <g id="Moova---Desktop---Home" transform="translate(-376.000000, -1384.000000)" fill="#8AD1DC" fill-rule="nonzero">
            <g id="Rectangle-Copy-16" transform="translate(120.000000, 1220.000000)">
                <g id="Group" transform="translate(256.000000, 164.000000)">
                    <path d="M19.8861107,7.23875298 C19.7548317,6.83502816 19.3967427,6.54919582 18.9747635,6.51101385 L13.2191745,5.98848379 L10.9445333,0.663088404 C10.7765935,0.271837349 10.3944696,0.0193191715 9.96914383,0.0193191715 C9.54381803,0.0193191715 9.16154199,0.271837349 8.99466704,0.663088404 L6.7200259,5.98848379 L0.963524197,6.51101385 C0.541545007,6.54995641 0.184216584,6.83578874 0.0521769584,7.23875298 C-0.0791020796,7.64247785 0.0421370596,8.08529738 0.361283546,8.36519705 L4.71205003,12.1801991 L3.42922728,17.8302172 C3.33536963,18.2456553 3.49661614,18.6752404 3.84131868,18.9244119 C4.02660011,19.0590376 4.24428292,19.1262744 4.46272635,19.1262744 C4.65044169,19.1262744 4.83830914,19.0763792 5.00609679,18.9759804 L9.96914383,16.0084355 L14.9312781,18.9759804 C15.2952998,19.1935112 15.753027,19.1735835 16.0969689,18.9244119 C16.4416715,18.6752404 16.602918,18.2456553 16.5090604,17.8302172 L15.2262376,12.1801991 L19.5770041,8.36519705 C19.8959985,8.08529738 20.0173897,7.64339058 19.8861107,7.23875298 Z" id="Path"></path>
                </g>
            </g>
        </g>
    </g>
</svg>