<?xml version="1.0" encoding="UTF-8"?>
<svg width="21px" height="21px" viewBox="0 0 21 21" version="1.1" xmlns="http://www.w3.org/2000/svg" xmlns:xlink="http://www.w3.org/1999/xlink">
    <title>0728F09B-C43E-4775-B2DC-EC263199C8CF</title>
    <g id="Page-1" stroke="none" stroke-width="1" fill="none" fill-rule="evenodd">
        <g id="Moova---Desktop---Inner-Gym" transform="translate(-1049.000000, -1768.000000)" fill="#D8D8D8" fill-rule="nonzero">
            <g id="Social-Icons-Copy" transform="translate(1049.000000, 1768.000000)">
                <path d="M15.1307543,0 L5.76695761,0 C2.58705911,0 0,2.58718272 0,5.76708122 L0,15.130878 C0,18.3109001 2.58705911,20.8979592 5.76695761,20.8979592 L15.1307543,20.8979592 C18.3109001,20.8979592 20.8979592,18.3107765 20.8979592,15.130878 L20.8979592,5.76708122 C20.8979592,2.58718272 18.3109001,0 15.1307543,0 Z M15.1307543,1.85416822 C17.2883881,1.85416822 19.0439146,3.60957108 19.0439146,5.76708122 L19.0439146,15.130878 C19.0439146,17.2885117 17.2885117,19.043791 15.130878,19.043791 L5.76695761,19.043791 C3.60944747,19.043791 1.85416822,17.2885117 1.85416822,15.130878 L1.85416822,5.76708122 C1.85416822,3.60957108 3.60944747,1.85416822 5.76695761,1.85416822 L15.1307543,1.85416822 Z M10.4489796,5.2244898 C7.56815253,5.2244898 5.2244898,7.56820633 5.2244898,10.4490995 C5.2244898,13.3298728 7.56815253,15.6734694 10.4489796,15.6734694 C13.3298067,15.6734694 15.6734694,13.3298728 15.6734694,10.4490995 C15.6734694,7.56820633 13.3298067,5.2244898 10.4489796,5.2244898 Z M10.4489796,7.023354 C12.3378696,7.023354 13.8745265,8.56004625 13.8745265,10.4489796 C13.8745265,12.337793 12.3377496,13.8743653 10.4489796,13.8743653 C8.56020954,13.8743653 7.02343264,12.337793 7.02343264,10.4489796 C7.02343264,8.56004625 8.56008961,7.023354 10.4489796,7.023354 Z M15.6734694,3.91836735 C15.3303154,3.91836735 14.9932171,4.05729128 14.750872,4.30070501 C14.5073395,4.54293135 14.3673469,4.88014842 14.3673469,5.2244898 C14.3673469,5.56776252 14.5074583,5.90486085 14.750872,6.14827458 C14.9930983,6.39050093 15.3303154,6.53061224 15.6734694,6.53061224 C16.0178108,6.53061224 16.3538404,6.39050093 16.5972542,6.14827458 C16.8406679,5.90486085 16.9795918,5.56764378 16.9795918,5.2244898 C16.9795918,4.88014842 16.8406679,4.54293135 16.5972542,4.30070501 C16.3550278,4.05729128 16.0178108,3.91836735 15.6734694,3.91836735 Z" id="instagram"></path>
            </g>
        </g>
    </g>
</svg>